<?xml version="1.0" standalone="no"?>
<!DOCTYPE svg PUBLIC "-//W3C//DTD SVG 1.1//EN" "http://www.w3.org/Graphics/SVG/1.1/DTD/svg11.dtd" >
<svg xmlns="http://www.w3.org/2000/svg">
<metadata>Generated by IcoMoon</metadata>
<defs>
<font id="icomoon" horiz-adv-x="1024">
<font-face units-per-em="1024" ascent="960" descent="-64" />
<missing-glyph horiz-adv-x="1024" />
<glyph unicode="&#x20;" horiz-adv-x="512" d="" />
<glyph unicode="&#xe900;" glyph-name="arrow-drop-top" horiz-adv-x="1664" d="M753.92 802.56l-5.12-6.4-464.64-437.76c-40.96-38.4-40.96-102.4 0-140.8s108.8-38.4 149.76 0l396.8 371.2 394.24-371.2c42.24-38.4 110.080-38.4 151.040 0s40.96 102.4 0 140.8l-464.64 437.76-5.12 6.4c-19.593 18.252-45.962 29.456-74.949 29.456-0.651 0-1.301-0.006-1.949-0.017l0.098 0.001c-0.551 0.010-1.2 0.016-1.851 0.016-28.986 0-55.356-11.204-75.015-29.517l0.066 0.061z" />
<glyph unicode="&#xe901;" glyph-name="dotdotdot" horiz-adv-x="2779" d="M585.143 667.429c161.583 0 292.571-130.989 292.571-292.571s-130.989-292.571-292.571-292.571v0c-161.583 0-292.571 130.989-292.571 292.571s130.989 292.571 292.571 292.571v0zM1462.857 667.429c161.583 0 292.571-130.989 292.571-292.571s-130.989-292.571-292.571-292.571v0c-161.583 0-292.571 130.989-292.571 292.571s130.989 292.571 292.571 292.571v0zM2340.571 667.429c161.583 0 292.571-130.989 292.571-292.571s-130.989-292.571-292.571-292.571v0c-161.583 0-292.571 130.989-292.571 292.571s130.989 292.571 292.571 292.571v0z" />
<glyph unicode="&#xe902;" glyph-name="filter" horiz-adv-x="1434" d="M136.533 686.933v136.533h1228.8v-136.533zM341.333 345.6v136.533h819.2v-136.533zM614.4 4.267v136.533h273.067v-136.533z" />
<glyph unicode="&#xe903;" glyph-name="plus" d="M120.471 357.647v120.471h361.412v361.412h120.471v-361.412h361.412v-120.471h-361.412v-361.412h-120.471v361.412z" />
<glyph unicode="&#xe904;" glyph-name="search" d="M161.431 542.569c4.359 198.224 166.080 357.246 364.943 357.246 2.147 0 4.29-0.019 6.428-0.055l-0.321 0.004c204.8 0 371.652-160.226 371.652-357.195-4.353-198.228-166.077-357.257-364.943-357.257-2.359 0-4.712 0.022-7.060 0.067l0.352-0.005c-55.416 0-108.424 12.047-155.407 32.527l-150.588-144.565c-24.094-22.889-62.645-22.889-86.739 0-11.248 10.575-18.254 25.552-18.254 42.165s7.005 31.589 18.223 42.137l0.030 0.028 133.722 128.904c-68.907 63.924-111.923 154.927-112.038 255.979v0.021zM284.913 542.569c2.683-132.326 110.586-238.569 243.304-238.569 1.499 0 2.995 0.014 4.487 0.041l-0.224-0.003c1.268-0.024 2.764-0.037 4.263-0.037 132.717 0 240.621 106.243 243.3 238.319l0.004 0.25c-3.020 132.059-110.789 237.957-243.291 237.957-1.292 0-2.581-0.010-3.868-0.030l0.195 0.002c-1.452 0.031-3.163 0.049-4.878 0.049-132.51 0-240.283-105.911-243.286-237.699l-0.005-0.28z" />
<glyph unicode="&#xe905;" glyph-name="sidemenu-button" horiz-adv-x="1317" d="M219.429 886.857h950.857c40.396 0 73.143-32.747 73.143-73.143s-32.747-73.143-73.143-73.143v0h-950.857c-40.396 0-73.143 32.747-73.143 73.143s32.747 73.143 73.143 73.143v0zM219.429 521.143h731.429c40.396 0 73.143-32.747 73.143-73.143s-32.747-73.143-73.143-73.143v0h-731.429c-40.396 0-73.143 32.747-73.143 73.143s32.747 73.143 73.143 73.143v0zM219.429 155.429h877.714c40.396 0 73.143-32.747 73.143-73.143s-32.747-73.143-73.143-73.143v0h-877.714c-40.396 0-73.143 32.747-73.143 73.143s32.747 73.143 73.143 73.143v0z" />
</font></defs></svg>